SmartPath - Customer Data – Blog
…
options(scipen = 999, digits = 2)

Variables

df <- read.csv('customer_data.csv') |> 
  as_tibble()

Inspect Dataset

All set, let’s check out the dataset (no pun intended).

df

# A tibble: 2,240 × 9
      ID Year_Birth Education  Income Dt_Customer Recency NumWebPurchases
   <int>      <int> <chr>       <int> <chr>         <int>           <int>
 1  5524       1957 Graduation  58138 9/4/2012         58               8
 2  2174       1954 Graduation  46344 3/8/2014         38               1
 3  4141       1965 Graduation  71613 8/21/2013        26               8
 4  6182       1984 Graduation  26646 2/10/2014        26               2
 5  5324       1981 PhD         58293 1/19/2014        94               5
 6  7446       1967 Master      62513 9/9/2013         16               6
 7   965       1971 Graduation  55635 11/13/2012       34               7
 8  6177       1985 PhD         33454 5/8/2013         32               4
 9  4855       1974 PhD         30351 6/6/2013         19               3
10  5899       1950 PhD          5648 3/13/2014        68               1
# ℹ 2,230 more rows
# ℹ 2 more variables: NumStorePurchases <int>, NumWebVisitsMonth <int>
…
