Analyzing Busiest Indonesia’s Train Station: Manggarai – Blog
…
Ahh, that’s even less. Alright, factor it is.

df_correct_types <- df_renamed |> 
  mutate(train_line = as_factor(train_line),
         route_name = as_factor(route_name),
         destination_city = as_factor(destination_city),
         arrival_time = hms(arrival_time),
         color = as_factor(color),
         destination_time = hms(destination_time)
         )

df_correct_types

# A tibble: 542 × 7
   train_id train_line route_name            destination_city arrival_time color
   <chr>    <fct>      <fct>                 <fct>            <Period>     <fct>
 1 1448B    BOGOR      JAKARTAKOTA-DEPOK     DEPOK            1M 0S        #E30…
 2 5182     CIKARANG   ANGKE-CIKARANG        CIKARANG         15M 0S       #008…
 3 1452B    BOGOR      JAKARTAKOTA-BOGOR     BOGOR            17M 0S       #E30…
 4 5002     CIKARANG   MANGGARAI-CIKARANG    CIKARANG         4H 0M 0S     #008…
 5 5004     CIKARANG   MANGGARAI-BEKASI      BEKASI           4H 10M 0S    #008…
 6 5017     CIKARANG   MANGGARAI-KAMPUNGBAN… KAMPUNGBANDAN    4H 10M 0S    #008…
 7 5008     CIKARANG   MANGGARAI-CIKARANG    CIKARANG         4H 25M 0S    #008…
 8 1000B    BOGOR      MANGGARAI-BOGOR       BOGOR            4H 33M 0S    #E30…
 9 5010     CIKARANG   MANGGARAI-BEKASI      BEKASI           4H 36M 0S    #008…
10 5023     CIKARANG   MANGGARAI-KAMPUNGBAN… KAMPUNGBANDAN    4H 41M 0S    #008…
# ℹ 532 more rows
# ℹ 1 more variable: destination_time <Period>
…
The next useful insight we could find is the interval between the trains. We could obtain this by lagging the arrival_time by 1, and subtract it from the original arrival_time for all rows.

df_train_intervals <- df_peak_hour |>
  mutate(arrival_time_lagged = lag(arrival_time, default = first(arrival_time)), 
         .after = arrival_time)

df_train_intervals <- df_train_intervals |> 
  mutate(arrival_interval = arrival_time - arrival_time_lagged,
         .after = arrival_time_lagged)

df_train_intervals |> 
  select(arrival_time, arrival_time_lagged, arrival_interval)

# A tibble: 542 × 3
   arrival_time arrival_time_lagged arrival_interval
   <Period>     <Period>            <Period>        
 1 1M 0S        1M 0S               0S              
 2 15M 0S       1M 0S               14M 0S          
 3 17M 0S       15M 0S              2M 0S           
 4 4H 0M 0S     17M 0S              4H -17M 0S      
 5 4H 10M 0S    4H 0M 0S            10M 0S          
 6 4H 10M 0S    4H 10M 0S           0S              
 7 4H 25M 0S    4H 10M 0S           15M 0S          
 8 4H 33M 0S    4H 25M 0S           8M 0S           
 9 4H 36M 0S    4H 33M 0S           3M 0S           
10 4H 41M 0S    4H 36M 0S           5M 0S           
# ℹ 532 more rows

Perfect. To make use of this column, we need to convert it to a numerical value, like seconds or minutes.

df_train_intervals <-  df_train_intervals |> 
  mutate(arrival_interval = as.numeric(arrival_interval, 'minutes'))

df_train_intervals |> 
  select(arrival_time, arrival_time_lagged, arrival_interval)

# A tibble: 542 × 3
   arrival_time arrival_time_lagged arrival_interval
   <Period>     <Period>                       <dbl>
 1 1M 0S        1M 0S                              0
 2 15M 0S       1M 0S                             14
 3 17M 0S       15M 0S                             2
 4 4H 0M 0S     17M 0S                           223
 5 4H 10M 0S    4H 0M 0S                          10
 6 4H 10M 0S    4H 10M 0S                          0
 7 4H 25M 0S    4H 10M 0S                         15
 8 4H 33M 0S    4H 25M 0S                          8
 9 4H 36M 0S    4H 33M 0S                          3
10 4H 41M 0S    4H 36M 0S                          5
# ℹ 532 more rows
…
On average, there’s a new train every 2.5 minutes. Wow.

Next, we’ll use group by because combining all routes won’t make much sense unless we want to see how busy the station is, which we already did.

df_train_intervals <-  df_train_intervals |> 
  group_by(train_line) |> 
  mutate(arrival_time_lagged = lag(arrival_time, default = first(arrival_time))) |>
  mutate(arrival_interval = as.numeric(arrival_time - arrival_time_lagged, "minutes")) |> 
  ungroup()

df_train_intervals |> 
  select(train_line, arrival_time, arrival_time_lagged, arrival_interval)

# A tibble: 542 × 4
   train_line arrival_time arrival_time_lagged arrival_interval
   <fct>      <Period>     <Period>                       <dbl>
 1 BOGOR      1M 0S        1M 0S                              0
 2 CIKARANG   15M 0S       15M 0S                             0
 3 BOGOR      17M 0S       1M 0S                             16
 4 CIKARANG   4H 0M 0S     15M 0S                           225
 5 CIKARANG   4H 10M 0S    4H 0M 0S                          10
 6 CIKARANG   4H 10M 0S    4H 10M 0S                          0
 7 CIKARANG   4H 25M 0S    4H 10M 0S                         15
 8 BOGOR      4H 33M 0S    17M 0S                           256
 9 CIKARANG   4H 36M 0S    4H 25M 0S                         11
10 CIKARANG   4H 41M 0S    4H 36M 0S                          5
# ℹ 532 more rows
…
