clean_r – Blog
…
# A tibble: 4 × 6
       NPM Nama              dupe_count    No `Kelas Lama` `Kelas Baru`
     <dbl> <chr>                  <int> <dbl> <chr>        <chr>       
1 10123884 MUHAMMAD RAMADHAN          2  1060 1KA03        2KA20       
2 10123884 MUHAMMAD RAMADHAN          2  1061 1KA03        2KA20       
3 10223100 AHMAD FAUZAN               2   300 1EA19        2EA19       
4 10223100 AHMAD FAUZAN               2   301 1EA19        2EA19       

df_student_gen_23_unique <- df_student_gen_23 |> 
  distinct(NPM, Nama, .keep_all = TRUE)

df_student_gen_23_unique

# A tibble: 8,080 × 5
      No      NPM Nama                        `Kelas Lama` `Kelas Baru`
   <dbl>    <dbl> <chr>                       <chr>        <chr>       
 1     1 60223026 A'NAS TASYA GUSTI FIANA     1EC01        2EC01       
 2     2 10123014 A. PEBRIYAN MAEYADI PUTRA   1KA01        2KA10       
 3     3 10223027 AARON MATTHEW PUTRA IBRAHIM 1EA01        2EA04       
 4     4 10623004 ABANG MAULANA JAVID FANSURI 1SA05        2SA05       
 5     5 10223028 ABDAN RIJAL SYAKURA         1EA23        2EA28       
 6     6 10223029 ABDAN SYAKUR                1EA22        2EA22       
 7     7 10823003 ABDEL RAUF FEBROZA          1MA01        2MA04       
 8     8 50423017 ABDHAN ZAKI ALFAREZA        1IA01        2IA17       
 9     9 50423018 ABDIL NAYAKA RIZKY          1IA02        2IA01       
10    10 10523002 ABDILLAH ISMAIL ADHA        1PA24        2PA28       
# ℹ 8,070 more rows

Remove Irrelevant Columns

df_student_gen_23_relevant_columns <- df_student_gen_23_unique |> 
  select(NPM, `Kelas Baru`)

df_student_gen_23_relevant_columns

# A tibble: 8,080 × 2
        NPM `Kelas Baru`
      <dbl> <chr>       
 1 60223026 2EC01       
 2 10123014 2KA10       
 3 10223027 2EA04       
 4 10623004 2SA05       
 5 10223028 2EA28       
 6 10223029 2EA22       
 7 10823003 2MA04       
 8 50423017 2IA17       
 9 50423018 2IA01       
10 10523002 2PA28       
# ℹ 8,070 more rows
…
df_student_gen_24 <- read_csv('student_list_generation_24.csv')

Rows: 8636 Columns: 6
── Column specification ────────────────────────────────────────────────────────
Delimiter: ","
chr (4): No Pend., Nama, Kelas, Keterangan
dbl (2): No, NPM

ℹ Use `spec()` to retrieve the full column specification for this data.
ℹ Specify the column types or set `show_col_types = FALSE` to quiet this message.

df_student_gen_24

# A tibble: 8,636 × 6
      No `No Pend.` Nama                           NPM Kelas  Keterangan        
   <dbl> <chr>      <chr>                        <dbl> <chr>  <chr>             
 1     1 I241962    A FARHAN ASSIDQI          10824001 1MA01  S1-Ilmu Komunikas…
 2     2 I244822    A'PIFAH DZAKIAH           20624001 1SB01  S1-Pariwisata Pag…
 3     3 I243593    A'ROOF RAIHAN HAKIM       20224001 1EB19  SarMag S1 Akuntan…
 4     4 I247622    AAS TRI HAYATI            11524262 1PA06  S1-Psikologi Pagi…
 5     5 A240094    AATHIFAH ALISHA FAUZIYAH  19124005 ALH241 S1-Sistem Informa…
 6     6 T242801    ABABIL NUR AHMAD          10824002 1MA02  S1-Ilmu Komunikas…
 7     7 T242992    ABBAS ALFIANSYAH ARRASYID 50424001 1IA16  S1-Informatika Pa…
 8     8 P108703    ABBY PINANDITA AL'GHIFARI 30324001 1TC03  S1-Desain Interio…
 9     9 I242606    ABD. RAFA KHARIM          10124001 1KA24  S1-Sistem Informa…
10    10 I248539    ABDALLAH                  31424417 1ID02  S1-Teknik Industr…
# ℹ 8,626 more rows
…
Remove Irrelevant Columns

df_student_gen_24_relevant_columns <- df_student_gen_24 |> 
  select(NPM, Kelas, Keterangan)

Rename Columns

df_student_gen_24_renamed <- df_student_gen_24_relevant_columns |> 
  rename(student_id = NPM, class_code = Kelas, additional_info = Keterangan)

df_student_gen_24_renamed

# A tibble: 8,636 × 3
   student_id class_code additional_info                              
        <dbl> <chr>      <chr>                                        
 1   10824001 1MA01      S1-Ilmu Komunikasi Pagi Depok                
 2   20624001 1SB01      S1-Pariwisata Pagi Depok                     
 3   20224001 1EB19      SarMag S1 Akuntansi - S2 Manajemen Sistem Inf
 4   11524262 1PA06      S1-Psikologi Pagi Depok                      
 5   19124005 ALH241     S1-Sistem Informasi Pagi Depok               
 6   10824002 1MA02      S1-Ilmu Komunikasi Pagi Depok                
 7   50424001 1IA16      S1-Informatika Pagi Kalimalang               
 8   30324001 1TC03      S1-Desain Interior Pagi Depok                
 9   10124001 1KA24      S1-Sistem Informasi Pagi Kalimalang          
10   31424417 1ID02      S1-Teknik Industri Pagi Depok                
# ℹ 8,626 more rows
…
Investigate SarMag

df_student_gen_24_split_info

# A tibble: 8,636 × 10
   student_id year_code major_code class_number class_code degree    major shift
        <dbl> <chr>     <chr>      <chr>        <chr>      <chr>     <chr> <chr>
 1   10824001 1         MA         01           1MA01      S1        Ilmu… Pagi 
 2   20624001 1         SB         01           1SB01      S1        Pari… Pagi 
 3   20224001 1         EB         19           1EB19      SarMag S1 <NA>  <NA> 
 4   11524262 1         PA         06           1PA06      S1        Psik… Pagi 
 5   19124005 <NA>      <NA>       <NA>         ALH241     S1        Sist… Pagi 
 6   10824002 1         MA         02           1MA02      S1        Ilmu… Pagi 
 7   50424001 1         IA         16           1IA16      S1        Info… Pagi 
 8   30324001 1         TC         03           1TC03      S1        Desa… Pagi 
 9   10124001 1         KA         24           1KA24      S1        Sist… Pagi 
10   31424417 1         ID         02           1ID02      S1        Tekn… Pagi 
# ℹ 8,626 more rows
# ℹ 2 more variables: branch <chr>, additional_info <chr>
…
add SarMag Branch

df_student_gen_24_parse_sarmag_add_branch <- df_student_gen_24_parse_sarmag_fixed_typo |> 
  mutate(branch = if_else(str_detect(degree, 'SarMag'), 'Jakarta', branch))

Combine Dataset

Review Gen 23 Dataset

df_student_gen_23_split_classcode

# A tibble: 8,080 × 5
   student_id year_code major_code class_number class_code
        <dbl> <chr>     <chr>      <chr>        <chr>     
 1   60223026 2         EC         01           2EC01     
 2   10123014 2         KA         10           2KA10     
 3   10223027 2         EA         04           2EA04     
 4   10623004 2         SA         05           2SA05     
 5   10223028 2         EA         28           2EA28     
 6   10223029 2         EA         22           2EA22     
 7   10823003 2         MA         04           2MA04     
 8   50423017 2         IA         17           2IA17     
 9   50423018 2         IA         01           2IA01     
10   10523002 2         PA         28           2PA28     
# ℹ 8,070 more rows

Extract Major Codes from Gen 24 Dataset

df_major_code <- df_student_gen_24_parse_sarmag_add_branch |> 
  distinct(major_code, major) |>
  drop_na()

df_major_code

# A tibble: 34 × 2
   major_code major           
   <chr>      <chr>           
 1 MA         Ilmu Komunikasi 
 2 SB         Pariwisata      
 3 EB         Akuntansi       
 4 PA         Psikologi       
 5 IA         Informatika     
 6 TC         Desain Interior 
 7 KA         Sistem Informasi
 8 ID         Teknik Industri 
 9 EA         Manajemen       
10 IC         Teknik Mesin    
# ℹ 24 more rows
…
