eda_r – Blog
…
Rows: 8636 Columns: 6
── Column specification ────────────────────────────────────────────────────────
Delimiter: ","
chr (4): No Pend., Nama, Kelas, Keterangan
dbl (2): No, NPM

ℹ Use `spec()` to retrieve the full column specification for this data.
ℹ Specify the column types or set `show_col_types = FALSE` to quiet this message.

Inspect Data

df_student_gen_23

# A tibble: 8,082 × 5
      No      NPM Nama                        `Kelas Lama` `Kelas Baru`
   <dbl>    <dbl> <chr>                       <chr>        <chr>       
 1     1 60223026 A'NAS TASYA GUSTI FIANA     1EC01        2EC01       
 2     2 10123014 A. PEBRIYAN MAEYADI PUTRA   1KA01        2KA10       
 3     3 10223027 AARON MATTHEW PUTRA IBRAHIM 1EA01        2EA04       
 4     4 10623004 ABANG MAULANA JAVID FANSURI 1SA05        2SA05       
 5     5 10223028 ABDAN RIJAL SYAKURA         1EA23        2EA28       
 6     6 10223029 ABDAN SYAKUR                1EA22        2EA22       
 7     7 10823003 ABDEL RAUF FEBROZA          1MA01        2MA04       
 8     8 50423017 ABDHAN ZAKI ALFAREZA        1IA01        2IA17       
 9     9 50423018 ABDIL NAYAKA RIZKY          1IA02        2IA01       
10    10 10523002 ABDILLAH ISMAIL ADHA        1PA24        2PA28       
# ℹ 8,072 more rows

df_student_gen_23 |> 
  glimpse()

Rows: 8,082
Columns: 5
$ No           <dbl> 1, 2, 3, 4, 5, 6, 7, 8, 9, 10, 11, 12, 13, 14, 15, 16, 17…
$ NPM          <dbl> 60223026, 10123014, 10223027, 10623004, 10223028, 1022302…
$ Nama         <chr> "A'NAS TASYA GUSTI FIANA", "A. PEBRIYAN MAEYADI PUTRA", "…
$ `Kelas Lama` <chr> "1EC01", "1KA01", "1EA01", "1SA05", "1EA23", "1EA22", "1M…
$ `Kelas Baru` <chr> "2EC01", "2KA10", "2EA04", "2SA05", "2EA28", "2EA22", "2M…

df_student_gen_24

# A tibble: 8,636 × 6
      No `No Pend.` Nama                           NPM Kelas  Keterangan        
   <dbl> <chr>      <chr>                        <dbl> <chr>  <chr>             
 1     1 I241962    A FARHAN ASSIDQI          10824001 1MA01  S1-Ilmu Komunikas…
 2     2 I244822    A'PIFAH DZAKIAH           20624001 1SB01  S1-Pariwisata Pag…
 3     3 I243593    A'ROOF RAIHAN HAKIM       20224001 1EB19  SarMag S1 Akuntan…
 4     4 I247622    AAS TRI HAYATI            11524262 1PA06  S1-Psikologi Pagi…
 5     5 A240094    AATHIFAH ALISHA FAUZIYAH  19124005 ALH241 S1-Sistem Informa…
 6     6 T242801    ABABIL NUR AHMAD          10824002 1MA02  S1-Ilmu Komunikas…
 7     7 T242992    ABBAS ALFIANSYAH ARRASYID 50424001 1IA16  S1-Informatika Pa…
 8     8 P108703    ABBY PINANDITA AL'GHIFARI 30324001 1TC03  S1-Desain Interio…
 9     9 I242606    ABD. RAFA KHARIM          10124001 1KA24  S1-Sistem Informa…
10    10 I248539    ABDALLAH                  31424417 1ID02  S1-Teknik Industr…
# ℹ 8,626 more rows
…
Inconsistency

df_student_gen_23

# A tibble: 8,082 × 5
      No      NPM Nama                        `Kelas Lama` `Kelas Baru`
   <dbl>    <dbl> <chr>                       <chr>        <chr>       
 1     1 60223026 A'NAS TASYA GUSTI FIANA     1EC01        2EC01       
 2     2 10123014 A. PEBRIYAN MAEYADI PUTRA   1KA01        2KA10       
 3     3 10223027 AARON MATTHEW PUTRA IBRAHIM 1EA01        2EA04       
 4     4 10623004 ABANG MAULANA JAVID FANSURI 1SA05        2SA05       
 5     5 10223028 ABDAN RIJAL SYAKURA         1EA23        2EA28       
 6     6 10223029 ABDAN SYAKUR                1EA22        2EA22       
 7     7 10823003 ABDEL RAUF FEBROZA          1MA01        2MA04       
 8     8 50423017 ABDHAN ZAKI ALFAREZA        1IA01        2IA17       
 9     9 50423018 ABDIL NAYAKA RIZKY          1IA02        2IA01       
10    10 10523002 ABDILLAH ISMAIL ADHA        1PA24        2PA28       
# ℹ 8,072 more rows
…
df_student_gen_24 |> 
    mutate(class_length = str_length(Kelas)) |> 
    count(class_length)

# A tibble: 2 × 2
  class_length     n
         <int> <int>
1            5  8617
2            6    19

df_student_gen_24 |> 
  distinct(Keterangan)

# A tibble: 76 × 1
   Keterangan                                   
   <chr>                                        
 1 S1-Ilmu Komunikasi Pagi Depok                
 2 S1-Pariwisata Pagi Depok                     
 3 SarMag S1 Akuntansi - S2 Manajemen Sistem Inf
 4 S1-Psikologi Pagi Depok                      
 5 S1-Sistem Informasi Pagi Depok               
 6 S1-Informatika Pagi Kalimalang               
 7 S1-Desain Interior Pagi Depok                
 8 S1-Sistem Informasi Pagi Kalimalang          
 9 S1-Teknik Industri Pagi Depok                
10 S1-Informatika Pagi Depok                    
# ℹ 66 more rows
…
Major Enrollment by Generation Year

df_major_enrollment <-  df_combined_cleaned |> 
  count(major, generation_year) |>
  pivot_wider(names_from = generation_year, values_from = n) |> 
  mutate(change = `2024` - `2023`)

df_major_enrollment |> 
  arrange(desc(change))

# A tibble: 28 × 4
   major            `2023` `2024` change
   <chr>             <int>  <int>  <int>
 1 Manajemen          1335   1518    183
 2 Ilmu Komunikasi    1072   1160     88
 3 Akuntansi           607    685     78
 4 Farmasi              64    133     69
 5 Sistem Informasi   1214   1268     54
 6 Teknik Sipil        148    197     49
 7 Teknik Industri     340    387     47
 8 Desain Interior      14     60     46
 9 Pariwisata           31     64     33
10 Teknik Mesin        126    158     32
# ℹ 18 more rows
…
