EDA on islam religion growth worldwide – Blog
…
ℹ Use `spec()` to retrieve the full column specification for this data.
ℹ Specify the column types or set `show_col_types = FALSE` to quiet this message.

Inspect Dataset

Understand the data

df

# A tibble: 2,308 × 76
   index  Year `Christianity - Protestants (Population)` Christianity - Roman …¹
   <dbl> <dbl>                                     <dbl>                   <dbl>
 1     0  1945                                  66069671                38716742
 2     1  1950                                  73090083                42635882
 3     2  1955                                  79294628                46402368
 4     3  1960                                  90692928                50587880
 5     4  1965                                  94165803                64761783
 6     5  1970                                  93918347                69119143
 7     6  1975                                  93578909                77181399
 8     7  1980                                 101216516                75149580
 9     8  1985                                 107309700                82463100
10     9  1990                                 132040181                65530789
# ℹ 2,298 more rows
# ℹ abbreviated name: ¹​`Christianity - Roman Catholics (Population)`
# ℹ 72 more variables: `Christianity - Eastern Orthodox (Population)` <dbl>,
#   `Christianity - Anglican (Population)` <dbl>,
#   `Christianity - Others (Population)` <dbl>,
#   `Christianity - Total (Population)` <dbl>,
#   `Judaism - Orthodox (Population)` <dbl>, …
…
Clean Data

Pick relevant columns

df_islam <- df |> 
  select(Country = StateNme, Year, starts_with('Islam'))

df_islam

# A tibble: 2,308 × 18
   Country                   Year Islam - Sunni (Popula…¹ Islam - Shi'a (Popul…²
   <chr>                    <dbl>                   <dbl>                  <dbl>
 1 United States of America  1945                       0                      0
 2 United States of America  1950                       0                      0
 3 United States of America  1955                       0                      0
 4 United States of America  1960                       0                      0
 5 United States of America  1965                       0                      0
 6 United States of America  1970                       0                      0
 7 United States of America  1975                       0                      0
 8 United States of America  1980                 2407464                 254121
 9 United States of America  1985                 2186675                 298183
10 United States of America  1990                 2019386                 275371
# ℹ 2,298 more rows
# ℹ abbreviated names: ¹​`Islam - Sunni (Population)`,
#   ²​`Islam - Shi'a (Population)`
# ℹ 14 more variables: `Islam - Ibadhi (Population)` <dbl>,
#   `Islam - Nation of Islam (Population)` <dbl>,
#   `Islam - Alawite (Population)` <dbl>,
#   `Islam - Ahmadiyya (Population)` <dbl>, …
…
Check duplicate Year

df_islam_correct_type |> 
  get_dupes() |> 
  relocate(dupe_count)

No variable names specified - using all columns.

# A tibble: 626 × 19
   dupe_count Country  Year `Islam - Sunni (Population)` Islam - Shi'a (Popula…¹
        <int> <fct>   <dbl>                        <dbl>                   <dbl>
 1          2 Cuba     1945                            0                       0
 2          2 Cuba     1945                            0                       0
 3          2 Cuba     1950                            0                       0
 4          2 Cuba     1950                            0                       0
 5          2 Cuba     1955                            0                       0
 6          2 Cuba     1955                            0                       0
 7          2 Cuba     1960                            0                       0
 8          2 Cuba     1960                            0                       0
 9          2 Cuba     1965                            0                       0
10          2 Cuba     1965                            0                       0
# ℹ 616 more rows
# ℹ abbreviated name: ¹​`Islam - Shi'a (Population)`
# ℹ 14 more variables: `Islam - Ibadhi (Population)` <dbl>,
#   `Islam - Nation of Islam (Population)` <dbl>,
#   `Islam - Alawite (Population)` <dbl>,
#   `Islam - Ahmadiyya (Population)` <dbl>,
#   `Islam - Others (Population)` <dbl>, `Islam - Total (Population)` <dbl>, …
…
df_islam_replacedzero

# A tibble: 1,995 × 18
   Country  Year `Sunni (Population)` `Shi'a (Population)` `Ibadhi (Population)`
   <fct>   <dbl>                <dbl>                <dbl>                 <dbl>
 1 United…  1945                   NA                   NA                    NA
 2 United…  1950                   NA                   NA                    NA
 3 United…  1955                   NA                   NA                    NA
 4 United…  1960                   NA                   NA                    NA
 5 United…  1965                   NA                   NA                    NA
 6 United…  1970                   NA                   NA                    NA
 7 United…  1975                   NA                   NA                    NA
 8 United…  1980              2407464               254121                    NA
 9 United…  1985              2186675               298183                    NA
10 United…  1990              2019386               275371                    NA
# ℹ 1,985 more rows
# ℹ 13 more variables: `Nation of Islam (Population)` <dbl>,
#   `Alawite (Population)` <dbl>, `Ahmadiyya (Population)` <dbl>,
#   `Others (Population)` <dbl>, `Total (Population)` <dbl>,
#   `Sunni (Percent)` <dbl>, `Shi'a (Percent)` <dbl>, `Ibadhi (Percent)` <dbl>,
#   `Nation of Islam (Percent)` <dbl>, `Alawite (Percent)` <dbl>,
#   `Ahmadiyya (Percent)` <dbl>, `Others (Percent)` <dbl>, …
…
Normalize Dataframe

Separate Population from Percent columns

df_islam_population <- df_islam_correct_country |> 
  select(Country, Year, contains('Population')) |> 
  rename_with(function(x) str_remove(x, ' \\(Population\\)'),
              contains('Population'))

df_islam_population

# A tibble: 1,995 × 10
   Country       Year   Sunni `Shi'a` Ibadhi `Nation of Islam` Alawite Ahmadiyya
   <chr>        <dbl>   <dbl>   <dbl>  <dbl>             <dbl>   <dbl>     <dbl>
 1 United Stat…  1945      NA      NA     NA                NA      NA        NA
 2 United Stat…  1950      NA      NA     NA                NA      NA        NA
 3 United Stat…  1955      NA      NA     NA                NA      NA        NA
 4 United Stat…  1960      NA      NA     NA                NA      NA        NA
 5 United Stat…  1965      NA      NA     NA                NA      NA        NA
 6 United Stat…  1970      NA      NA     NA                NA      NA        NA
 7 United Stat…  1975      NA      NA     NA                NA      NA        NA
 8 United Stat…  1980 2407464  254121     NA                NA      NA      4975
 9 United Stat…  1985 2186675  298183     NA                NA      NA        NA
10 United Stat…  1990 2019386  275371     NA                NA      NA        NA
# ℹ 1,985 more rows
# ℹ 2 more variables: Others <dbl>, Total <dbl>

df_islam_percent <- df_islam_correct_country |> 
  select(Country, Year, contains('Percent')) |> 
  rename_with(function(x) str_remove(x, ' \\(Percent\\)'),
              contains('Percent'))

df_islam_percent

# A tibble: 1,995 × 10
   Country       Year   Sunni `Shi'a` Ibadhi `Nation of Islam` Alawite Ahmadiyya
   <chr>        <dbl>   <dbl>   <dbl>  <dbl>             <dbl>   <dbl>     <dbl>
 1 United Stat…  1945 NA      NA          NA                NA      NA        NA
 2 United Stat…  1950 NA      NA          NA                NA      NA        NA
 3 United Stat…  1955 NA      NA          NA                NA      NA        NA
 4 United Stat…  1960 NA      NA          NA                NA      NA        NA
 5 United Stat…  1965 NA      NA          NA                NA      NA        NA
 6 United Stat…  1970 NA      NA          NA                NA      NA        NA
 7 United Stat…  1975 NA      NA          NA                NA      NA        NA
 8 United Stat…  1980  0.0106  0.0011     NA                NA      NA        NA
 9 United Stat…  1985  0.0092  0.0013     NA                NA      NA        NA
10 United Stat…  1990  0.0081  0.0011     NA                NA      NA        NA
# ℹ 1,985 more rows
# ℹ 2 more variables: Others <dbl>, Total <dbl>
…
df_islam_percent_total_check <- df_islam_percent |> 
  mutate(Total_Recheck = rowSums(across(-c(Country, Year, Total)), na.rm = TRUE)) |> 
  mutate(Total_Recheck = if_else(Total_Recheck == 0, NA, Total_Recheck)) |> 
  relocate(Total, Total_Recheck, .after = Year)

validation_rules_total_percent <- validator(Total == Total_Recheck)
cf_total_percent <- confront(df_islam_percent_total_check, validation_rules_total_percent)
summary(cf_total_percent)

  name items passes fails nNA error warning                          expression
1   V1  1995   1566    75 354 FALSE   FALSE abs(Total - Total_Recheck) <= 1e-08

violating(df_islam_percent_total_check, cf_total_percent)

# A tibble: 75 × 11
   Country    Year  Total Total_Recheck   Sunni `Shi'a` Ibadhi `Nation of Islam`
   <chr>     <dbl>  <dbl>         <dbl>   <dbl>   <dbl>  <dbl>             <dbl>
 1 United S…  1985 0.0104        0.0105  0.0092  0.0013     NA                NA
 2 Canada     1980 0.0072        0.0071  0.0064  0.0007     NA                NA
 3 Canada     1995 0.0043        0.0042  0.0038  0.0004     NA                NA
 4 Suriname   1975 0.196         0.196  NA      NA          NA                NA
 5 United K…  1980 0.0147        0.0148 NA      NA          NA                NA
 6 Luxembou…  2010 0.02          0.0201  0.0181  0.002      NA                NA
 7 France     2000 0.0753        0.0754  0.0669  0.0085     NA                NA
 8 Germany    2010 0.049         0.0489  0.0355  0.0034     NA                NA
 9 Yugoslav…  2010 0.031         0.0311  0.0264  0.0047     NA                NA
10 Sweden     1980 0.001         0.0009 NA      NA          NA                NA
# ℹ 65 more rows
# ℹ 3 more variables: Alawite <dbl>, Ahmadiyya <dbl>, Others <dbl>
…
