EDA on Amazon Prime Movies and TV Shows – Blog
…
df |> 
  get_dupes(show_id)

No duplicate combinations found of: show_id

# A tibble: 0 × 13
# ℹ 13 variables: show_id <chr>, dupe_count <int>, type <chr>, title <chr>,
#   director <chr>, cast <chr>, country <chr>, date_added <chr>,
#   release_year <dbl>, rating <chr>, duration <chr>, listed_in <chr>,
#   description <chr>

df |> 
  get_dupes(description)

# A tibble: 394 × 13
   description dupe_count show_id type   title director cast  country date_added
   <chr>            <int> <chr>   <chr>  <chr> <chr>    <chr> <chr>   <chr>     
 1 1                   15 s7128   Movie  Act … 1        1     <NA>    <NA>      
 2 1                   15 s7129   Movie  Act … 1        1     <NA>    <NA>      
 3 1                   15 s7218   TV Sh… Seri… <NA>     1     <NA>    <NA>      
 4 1                   15 s8709   TV Sh… Clip… <NA>     1     <NA>    <NA>      
 5 1                   15 s8728   TV Sh… Act … <NA>     1     <NA>    September…
 6 1                   15 s8729   TV Sh… ACT … <NA>     1     <NA>    <NA>      
 7 1                   15 s8753   TV Sh… ACT … <NA>     1     <NA>    <NA>      
 8 1                   15 s8754   TV Sh… ACT … <NA>     1     <NA>    <NA>      
 9 1                   15 s8756   Movie  ACT … 1        1     <NA>    <NA>      
10 1                   15 s8758   Movie  ACT … 1        1     <NA>    <NA>      
# ℹ 384 more rows
# ℹ 4 more variables: release_year <dbl>, rating <chr>, duration <chr>,
#   listed_in <chr>

df |> 
  get_dupes(cast) |> 
  filter(!is.na(cast)) |> 
  distinct(cast)

# A tibble: 210 × 1
   cast                            
   <chr>                           
 1 Maggie Binkley                  
 2 1                               
 3 Anne-Marie Newland              
 4 Cassandra Peterson              
 5 Grace Tamayo, Erin Webbs        
 6 Gene Autry, Champion, Gail Davis
 7 Stevin John                     
 8 Eddie Izzard                    
 9 Gallagher                       
10 LB, Aaron Michael               
# ℹ 200 more rows
…
df |> 
  mutate(duration = parse_number(duration)) |> 
  arrange(desc(duration)) |> 
  relocate(title, duration, type, description)

# A tibble: 9,668 × 12
   title    duration type  description show_id director cast  country date_added
   <chr>       <dbl> <chr> <chr>       <chr>   <chr>    <chr> <chr>   <chr>     
 1 Soothin…      601 Movie Black scre… s934    Mark Kn… <NA>  <NA>    <NA>      
 2 Himalay…      550 Movie This ambie… s3851   Mark Kn… Niv … <NA>    <NA>      
 3 Midnigh…      541 Movie Our most p… s1674   Mark Kn… <NA>  <NA>    <NA>      
 4 Gentle …      541 Movie One of our… s2368   Mark Kn… <NA>  <NA>    <NA>      
 5 Gentle …      541 Movie Beautiful … s2369   Mark Kn… <NA>  <NA>    <NA>      
 6 9 Hour …      541 Movie Black scre… s3446   Mark Kn… <NA>  <NA>    <NA>      
 7 Thunder…      541 Movie Black scre… s4088   Mark Kn… <NA>  <NA>    <NA>      
 8 Pacific…      541 Movie For a full… s4129   Mark Kn… <NA>  <NA>    <NA>      
 9 New Yor…      541 Movie Are you a … s4278   Mark Kn… <NA>  <NA>    <NA>      
10 Gentle …      541 Movie Drift off … s4584   Mark Kn… <NA>  <NA>    <NA>      
# ℹ 9,658 more rows
# ℹ 3 more variables: release_year <dbl>, rating <chr>, listed_in <chr>
Check Categorical Data

df |> 
  count(type)

# A tibble: 2 × 2
  type        n
  <chr>   <int>
1 Movie    7814
2 TV Show  1854

df |> 
  count(listed_in)

# A tibble: 518 × 2
   listed_in                                     n
   <chr>                                     <int>
 1 Action                                      238
 2 Action, Adventure                            50
 3 Action, Adventure, Animation                  2
 4 Action, Adventure, Anime                      4
 5 Action, Adventure, Comedy                    26
 6 Action, Adventure, Documentary                3
 7 Action, Adventure, Drama                     37
 8 Action, Adventure, Faith and Spirituality     1
 9 Action, Adventure, Fantasy                    7
10 Action, Adventure, Horror                    10
# ℹ 508 more rows
…
Cast

df |> 
 names()

 [1] "show_id"      "type"         "title"        "director"     "cast"        
 [6] "country"      "date_added"   "release_year" "rating"       "duration"    
[11] "listed_in"    "description" 

df |> 
  select(cast, description) |> 
  filter(nchar(cast) < 4)

# A tibble: 38 × 2
   cast  description                                                            
   <chr> <chr>                                                                  
 1 TJ    In his debut special taped in Brooklyn, Haitian born stand-up comedian…
 2 Nas   When Nas was just 19 years old, he composed what would become one of h…
 3 1     2                                                                      
 4 1     Series before 1C onboarding                                            
 5 1     Title Post onboarding 8                                                
 6 1     1                                                                      
 7 1     1                                                                      
 8 1     clip1                                                                  
 9 1     1                                                                      
10 1     ACT 4 - Title after removing 1C - 5                                    
# ℹ 28 more rows
…
Description

df |> 
  relocate(description, title) |> 
  filter(nchar(description) < 15)

# A tibble: 32 × 12
   description title             show_id type  director cast  country date_added
   <chr>       <chr>             <chr>   <chr> <chr>    <chr> <chr>   <chr>     
 1 a           Simple Gifts: Th… s1001   Movie Habib A… <NA>  <NA>    <NA>      
 2 Test title  Movie10y          s1589   Movie Test ti… Prod… <NA>    <NA>      
 3 Test title  Movie10x          s1590   Movie Test ti… <NA>  <NA>    <NA>      
 4 test        IN and Classic -… s2123   Movie <NA>     <NA>  <NA>    <NA>      
 5 Elfen Lied  Elfen Lied        s2564   TV S… <NA>     Kira… <NA>    <NA>      
 6 test        Dmec and other    s5378   Movie <NA>     <NA>  <NA>    <NA>      
 7 2           Series before 1C… s6419   TV S… <NA>     1     <NA>    July 12, …
 8 1           Act 4 - Title be… s7128   Movie 1        1     <NA>    <NA>      
 9 1           Act 4 - Title be… s7129   Movie 1        1     <NA>    <NA>      
10 clip1       Clip: 1           s7140   Movie 1        1     <NA>    <NA>      
# ℹ 22 more rows
# ℹ 4 more variables: release_year <dbl>, rating <chr>, duration <chr>,
#   listed_in <chr>
…
