Working through G4DS: Getting Started - Part 1 – Blog
…
Things you can do with a plot object other than display it, like save it to disk, Section 2.8.

That seems a lot for an introduction. Oh right, it’s a rapid overview. That makes sense. I wonder what mpg dataset is.

2.2 Fuel Economy Data

In this chapter, we’ll mostly use one data set that’s bundled with ggplot2: mpg. It includes information about the fuel economy of popular car models in 1999 and 2008, collected by the US Environmental Protection Agency, http://fueleconomy.gov.

Ahh, car models. Too bad I’m not familiar with cars. Let’s see if I can follow along.

library(ggplot2)
mpg

# A tibble: 234 × 11
   manufacturer model      displ  year   cyl trans drv     cty   hwy fl    class
   <chr>        <chr>      <dbl> <int> <int> <chr> <chr> <int> <int> <chr> <chr>
 1 audi         a4           1.8  1999     4 auto… f        18    29 p     comp…
 2 audi         a4           1.8  1999     4 manu… f        21    29 p     comp…
 3 audi         a4           2    2008     4 manu… f        20    31 p     comp…
 4 audi         a4           2    2008     4 auto… f        21    30 p     comp…
 5 audi         a4           2.8  1999     6 auto… f        16    26 p     comp…
 6 audi         a4           2.8  1999     6 manu… f        18    26 p     comp…
 7 audi         a4           3.1  2008     6 auto… f        18    27 p     comp…
 8 audi         a4 quattro   1.8  1999     4 manu… 4        18    26 p     comp…
 9 audi         a4 quattro   1.8  1999     4 auto… 4        16    25 p     comp…
10 audi         a4 quattro   2    2008     4 manu… 4        20    28 p     comp…
# ℹ 224 more rows
…
Okay, I’m starting to get the hang of it. However, I believe that researching the difference between the two is beyond the scope of this chapter, let alone this book. So, let’s skip over this. (Read: I’m too lazy to deal with Math, lol)

Which manufacturer has the most models in this dataset? Which model has the most variations? Does your answer change if you remove the redundant specification of drive train (e.g. “pathfinder 4wd”, “a4 quattro”) from the model name?

What does ‘most models’ supposed to mean here? I’m guessing it means ‘most amounts of models’, regardless of how many cars are there with those models.

At first, the group by function from dplyr cames to mind, but the book is about ggplot, not dplyr, so I doubt we should be using that here.

My guess is, ggplot should be able to help us see which manufacturer has the most models through visualization.

As starters, let’s create a scatterplot with manufacturer as the x and model as the y

mpg

# A tibble: 234 × 11
   manufacturer model      displ  year   cyl trans drv     cty   hwy fl    class
   <chr>        <chr>      <dbl> <int> <int> <chr> <chr> <int> <int> <chr> <chr>
 1 audi         a4           1.8  1999     4 auto… f        18    29 p     comp…
 2 audi         a4           1.8  1999     4 manu… f        21    29 p     comp…
 3 audi         a4           2    2008     4 manu… f        20    31 p     comp…
 4 audi         a4           2    2008     4 auto… f        21    30 p     comp…
 5 audi         a4           2.8  1999     6 auto… f        16    26 p     comp…
 6 audi         a4           2.8  1999     6 manu… f        18    26 p     comp…
 7 audi         a4           3.1  2008     6 auto… f        18    27 p     comp…
 8 audi         a4 quattro   1.8  1999     4 manu… 4        18    26 p     comp…
 9 audi         a4 quattro   1.8  1999     4 auto… 4        16    25 p     comp…
10 audi         a4 quattro   2    2008     4 manu… 4        20    28 p     comp…
# ℹ 224 more rows
…
Attaching package: 'dplyr'

The following objects are masked from 'package:stats':

    filter, lag

The following objects are masked from 'package:base':

    intersect, setdiff, setequal, union

I forgot what the data looks like, let’s see…

mpg

# A tibble: 234 × 11
   manufacturer model      displ  year   cyl trans drv     cty   hwy fl    class
   <chr>        <chr>      <dbl> <int> <int> <chr> <chr> <int> <int> <chr> <chr>
 1 audi         a4           1.8  1999     4 auto… f        18    29 p     comp…
 2 audi         a4           1.8  1999     4 manu… f        21    29 p     comp…
 3 audi         a4           2    2008     4 manu… f        20    31 p     comp…
 4 audi         a4           2    2008     4 auto… f        21    30 p     comp…
 5 audi         a4           2.8  1999     6 auto… f        16    26 p     comp…
 6 audi         a4           2.8  1999     6 manu… f        18    26 p     comp…
 7 audi         a4           3.1  2008     6 auto… f        18    27 p     comp…
 8 audi         a4 quattro   1.8  1999     4 manu… 4        18    26 p     comp…
 9 audi         a4 quattro   1.8  1999     4 auto… 4        16    25 p     comp…
10 audi         a4 quattro   2    2008     4 manu… 4        20    28 p     comp…
# ℹ 224 more rows

Ahh, alright. Let’s select the unique values from the manufacturer and model.

mpg |> 
  distinct(manufacturer, model)

# A tibble: 38 × 2
   manufacturer model             
   <chr>        <chr>             
 1 audi         a4                
 2 audi         a4 quattro        
 3 audi         a6 quattro        
 4 chevrolet    c1500 suburban 2wd
 5 chevrolet    corvette          
 6 chevrolet    k1500 tahoe 4wd   
 7 chevrolet    malibu            
 8 dodge        caravan 2wd       
 9 dodge        dakota pickup 4wd 
10 dodge        durango 4wd       
# ℹ 28 more rows
…
