Analyzing Top 10.000 Most Popular Movies on IMDB – Blog
…
Rows: 10000 Columns: 7
── Column specification ────────────────────────────────────────────────────────
Delimiter: ","
chr (3): tconst, primaryTitle, genres
dbl (4): startYear, runtimeMinutes, averageRating, numVotes

ℹ Use `spec()` to retrieve the full column specification for this data.
ℹ Specify the column types or set `show_col_types = FALSE` to quiet this message.

Clean Data

df

# A tibble: 10,000 × 7
   tconst    primaryTitle genres startYear runtimeMinutes averageRating numVotes
   <chr>     <chr>        <chr>      <dbl>          <dbl>         <dbl>    <dbl>
 1 tt0111161 The Shawsha… Drama       1994            142           9.3  2933616
 2 tt0468569 The Dark Kn… Actio…      2008            152           9    2914022
 3 tt1375666 Inception    Actio…      2010            148           8.8  2587592
 4 tt0137523 Fight Club   Drama       1999            139           8.8  2365113
 5 tt0109830 Forrest Gump Drama…      1994            142           8.8  2294287
 6 tt0110912 Pulp Fiction Crime…      1994            154           8.9  2253218
 7 tt0816692 Interstellar Adven…      2014            169           8.7  2149979
 8 tt0133093 The Matrix   Actio…      1999            136           8.7  2083320
 9 tt0068646 The Godfath… Crime…      1972            175           9.2  2044687
10 tt0120737 The Lord of… Actio…      2001            178           8.9  2035850
# ℹ 9,990 more rows
…
df |> 
  pull(numVotes) |> 
  cut(breaks = seq(1, 3000000, 100000), dig.lab = 50, right = FALSE, include.lowest = TRUE) |> 
  tabyl() |> 
  as.tibble() |> 
  rename(range = 1) |> 
  mutate(percent = label_percent(accuracy=0.001)(percent)) |> 
  select(-valid_percent)

Warning: `as.tibble()` was deprecated in tibble 2.0.0.
ℹ Please use `as_tibble()` instead.
ℹ The signature and semantics have changed, see `?as_tibble`.

# A tibble: 30 × 3
   range                n percent
   <fct>            <int> <chr>  
 1 [1,100001)        7749 77.490%
 2 [100001,200001)   1130 11.300%
 3 [200001,300001)    470 4.700% 
 4 [300001,400001)    209 2.090% 
 5 [400001,500001)    131 1.310% 
 6 [500001,600001)     73 0.730% 
 7 [600001,700001)     62 0.620% 
 8 [700001,800001)     50 0.500% 
 9 [800001,900001)     37 0.370% 
10 [900001,1000001)    21 0.210% 
# ℹ 20 more rows
…
