Case Study: RevoU DAMC Certification (July 22) – Blog
…
df

# A tibble: 2,824 × 10
   ORDERNUMBER QUANTITYORDERED PRICEEACH ORDERDATE      STATUS  PRODUCTLINE 
         <dbl>           <dbl>     <dbl> <chr>          <chr>   <chr>       
 1       10100              30     100   1/6/2003 0:00  Shipped Vintage Cars
 2       10100              50      67.8 1/6/2003 0:00  Shipped Vintage Cars
 3       10100              22      86.5 1/6/2003 0:00  Shipped Vintage Cars
 4       10100              49      34.5 1/6/2003 0:00  Shipped Vintage Cars
 5       10101              25     100   1/9/2003 0:00  Shipped Vintage Cars
 6       10101              26     100   1/9/2003 0:00  Shipped Vintage Cars
 7       10101              45      31.2 1/9/2003 0:00  Shipped Vintage Cars
 8       10101              46      53.8 1/9/2003 0:00  Shipped Vintage Cars
 9       10102              39     100   1/10/2003 0:00 Shipped Vintage Cars
10       10102              41      50.1 1/10/2003 0:00 Shipped Vintage Cars
# ℹ 2,814 more rows
# ℹ 4 more variables: PRODUCTCODE <chr>, CUSTOMERNAME <chr>, CITY <chr>,
#   DEALSIZE <chr>
…
Let’s also parse the date while we’re at it.

df <- df |> 
  mutate(ORDERDATE = mdy(ORDERDATE))

ORDERDATE is likely be one of the key variables in our analysis. So, we’ll frequently work with that

Clean Price

Since we’re dealing with sales data, the next important thing is the numbers: price, quantity, revenue. Let’s take a look again at the data.

df

# A tibble: 2,824 × 10
   ORDERNUMBER QUANTITYORDERED PRICEEACH ORDERDATE  STATUS  PRODUCTLINE 
         <dbl>           <dbl>     <dbl> <date>     <chr>   <chr>       
 1       10100              30     100   2003-01-06 Shipped Vintage Cars
 2       10100              50      67.8 2003-01-06 Shipped Vintage Cars
 3       10100              22      86.5 2003-01-06 Shipped Vintage Cars
 4       10100              49      34.5 2003-01-06 Shipped Vintage Cars
 5       10101              25     100   2003-01-09 Shipped Vintage Cars
 6       10101              26     100   2003-01-09 Shipped Vintage Cars
 7       10101              45      31.2 2003-01-09 Shipped Vintage Cars
 8       10101              46      53.8 2003-01-09 Shipped Vintage Cars
 9       10102              39     100   2003-01-10 Shipped Vintage Cars
10       10102              41      50.1 2003-01-10 Shipped Vintage Cars
# ℹ 2,814 more rows
# ℹ 4 more variables: PRODUCTCODE <chr>, CUSTOMERNAME <chr>, CITY <chr>,
#   DEALSIZE <chr>
…
Yup, exactly. Let’s see it from the table for clearer numbers using count()

df |> 
  count(PRICEEACH, sort = TRUE)

# A tibble: 1,016 × 2
   PRICEEACH     n
       <dbl> <int>
 1     100    1304
 2      59.9     6
 3      96.3     6
 4      51.9     5
 5      57.7     5
 6      62.0     5
 7      67.1     5
 8      80.6     5
 9      89.4     5
10      90.2     5
# ℹ 1,006 more rows
…
2. Sales Performance Pattern

Show sales performance over time, is there any pattern?

Again, we need to understand what does Sales Perfomance mean? It can be measured from various metrics, depending on the goals, so we need to guess. Since it’s just a simple case study, let’s go with revenue, which can be obtained from multiplying QUANTITYORDERED and PRICEEACH

First, let’s create a new revenue column

df <- df |> 
  mutate(revenue = QUANTITYORDERED * PRICEEACH, .after = PRICEEACH)

df

# A tibble: 2,824 × 11
   ORDERNUMBER QUANTITYORDERED PRICEEACH revenue ORDERDATE  STATUS  PRODUCTLINE 
         <dbl>           <dbl>     <dbl>   <dbl> <date>     <chr>   <chr>       
 1       10100              30     100     3000  2003-01-06 Shipped Vintage Cars
 2       10100              50      67.8   3390  2003-01-06 Shipped Vintage Cars
 3       10100              22      86.5   1903. 2003-01-06 Shipped Vintage Cars
 4       10100              49      34.5   1689. 2003-01-06 Shipped Vintage Cars
 5       10101              25     100     2500  2003-01-09 Shipped Vintage Cars
 6       10101              26     100     2600  2003-01-09 Shipped Vintage Cars
 7       10101              45      31.2   1404  2003-01-09 Shipped Vintage Cars
 8       10101              46      53.8   2473. 2003-01-09 Shipped Vintage Cars
 9       10102              39     100     3900  2003-01-10 Shipped Vintage Cars
10       10102              41      50.1   2056. 2003-01-10 Shipped Vintage Cars
# ℹ 2,814 more rows
# ℹ 4 more variables: PRODUCTCODE <chr>, CUSTOMERNAME <chr>, CITY <chr>,
#   DEALSIZE <chr>

By Product Lines

Now, we can compute the total revenue of each PRODUCTLINE per day using count()

daily_revenue <- df |> 
  count(ORDERDATE, PRODUCTLINE, wt = revenue, name = 'REVENUE')

daily_revenue

# A tibble: 600 × 3
   ORDERDATE  PRODUCTLINE      REVENUE
   <date>     <chr>              <dbl>
 1 2003-01-06 Vintage Cars       9982.
 2 2003-01-09 Vintage Cars       8977.
 3 2003-01-10 Vintage Cars       5956.
 4 2003-01-29 Classic Cars      11000 
 5 2003-01-29 Trucks and Buses  21093.
 6 2003-01-29 Vintage Cars      15793.
 7 2003-01-31 Classic Cars      18185.
 8 2003-01-31 Trains             4934.
 9 2003-01-31 Trucks and Buses  11967.
10 2003-02-11 Classic Cars      12000 
# ℹ 590 more rows
…
